<svg width="105" height="25" viewBox="0 0 105 25" fill="none" xmlns="http://www.w3.org/2000/svg">
<path d="M53.2313 0.0252161V11.9272L45.5151 0.0252161H38.379V15.4827L33.0079 0.0252161H29.6037L32.1254 3.30331H26.1744L28.5447 0.32781L28.7464 0.0252161H25.2666L20.5259 13.1124C20.5259 13.1124 21.1311 1.21037 10.4143 0.630404H0.302594L0 0.302594V24.1066H10.1117C10.1117 24.1066 15.1801 23.804 18.1304 20.2486L16.9452 23.8293H24.0814L25.2666 20.2486H32.4027L33.5879 23.8293H44.8847V12.5072L53.2061 23.804H59.737V0.0252161H53.2313ZM13.0872 13.3898C13.0872 13.3898 13.0872 15.1801 11.2968 16.3653C11.2968 16.3653 10.1117 17.5504 7.13617 17.5504V6.85879H8.92651C8.92651 6.85879 13.0872 7.46398 13.0872 11.6246V13.3898ZM27.3595 13.995L29.1499 10.4143L30.9402 13.995H27.3595ZM102.907 3.2781H99.9316L102.024 0H97.8638V4.16066C97.8638 4.16066 96.6787 1.18516 92.518 0H62.763V7.13617H68.1088V23.804H74.6398V7.16138H79.9856V23.8293H86.5166V17.853L91.2824 23.804H105V1.21037L102.907 3.2781ZM89.2399 11.0195H86.8444V6.2536H88.6347C88.6347 6.2536 90.4251 6.85879 90.4251 9.22911C90.4251 9.22911 90.4251 10.4143 89.2399 11.0195ZM98.1412 21.1311L93.9805 15.1801C93.9805 15.1801 95.7709 14.5749 98.1412 11.0195V21.1311Z" fill="#1F8350"/>
</svg>
