<svg width="17" height="16" viewBox="0 0 17 16" fill="none" xmlns="http://www.w3.org/2000/svg">
<g clip-path="url(#clip0)">
<path d="M13.5945 1.14768H12.0233V0.455696C12.0233 0.202532 11.8184 0 11.5622 0C11.306 0 11.1011 0.202532 11.1011 0.455696V2.83544C10.8278 2.98734 10.6399 3.27426 10.6399 3.61181C10.6399 4.11814 11.0498 4.52321 11.5622 4.52321C12.0745 4.52321 12.4844 4.11814 12.4844 3.61181C12.4844 3.27426 12.2966 3.00422 12.0233 2.83544V2.05907H13.5945C14.5509 2.05907 15.3024 2.81857 15.3024 3.74683V5.14768H0.922242V3.74683C0.922242 2.81857 1.69078 2.05907 2.6301 2.05907H3.43279V1.14768H2.6301C1.17842 1.14768 0 2.31224 0 3.74683V13.4008C0 14.8354 1.17842 16 2.6301 16H13.5945C15.0462 16 16.2246 14.8354 16.2246 13.4008V3.74683C16.2246 2.31224 15.0462 1.14768 13.5945 1.14768ZM15.3024 13.4008C15.3024 14.346 14.5339 15.0886 13.5945 15.0886H2.6301C1.6737 15.0886 0.922242 14.3291 0.922242 13.4008V6.05907H15.3195V13.4008H15.3024Z" fill="#333333"/>
<path d="M3.77437 9.80546H4.54291C5.08942 9.80546 5.53346 9.36664 5.53346 8.82656C5.53346 8.28648 5.08942 7.84766 4.54291 7.84766H3.77437C3.22786 7.84766 2.78381 8.28648 2.78381 8.82656C2.80089 9.36664 3.22786 9.80546 3.77437 9.80546Z" fill="#333333"/>
<path d="M7.73641 9.80546H8.50494C9.05146 9.80546 9.4955 9.36664 9.4955 8.82656C9.4955 8.28648 9.05146 7.84766 8.50494 7.84766H7.73641C7.18989 7.84766 6.74585 8.28648 6.74585 8.82656C6.74585 9.36664 7.18989 9.80546 7.73641 9.80546Z" fill="#333333"/>
<path d="M11.6991 9.80546H12.4676C13.0141 9.80546 13.4581 9.36664 13.4581 8.82656C13.4581 8.28648 13.0141 7.84766 12.4676 7.84766H11.6991C11.1525 7.84766 10.7085 8.28648 10.7085 8.82656C10.7085 9.36664 11.1525 9.80546 11.6991 9.80546Z" fill="#333333"/>
<path d="M3.77437 13.2664H4.54291C5.08942 13.2664 5.53346 12.8276 5.53346 12.2875C5.53346 11.7474 5.08942 11.3086 4.54291 11.3086H3.77437C3.22786 11.3086 2.78381 11.7474 2.78381 12.2875C2.80089 12.8276 3.22786 13.2664 3.77437 13.2664Z" fill="#333333"/>
<path d="M7.73641 13.2664H8.50494C9.05146 13.2664 9.4955 12.8276 9.4955 12.2875C9.4955 11.7474 9.05146 11.3086 8.50494 11.3086H7.73641C7.18989 11.3086 6.74585 11.7474 6.74585 12.2875C6.74585 12.8276 7.18989 13.2664 7.73641 13.2664Z" fill="#333333"/>
<path d="M11.6991 13.2664H12.4676C13.0141 13.2664 13.4581 12.8276 13.4581 12.2875C13.4581 11.7474 13.0141 11.3086 12.4676 11.3086H11.6991C11.1525 11.3086 10.7085 11.7474 10.7085 12.2875C10.7085 12.8276 11.1525 13.2664 11.6991 13.2664Z" fill="#333333"/>
<path d="M4.6626 4.50633C5.17496 4.50633 5.58484 4.10127 5.58484 3.59494C5.58484 3.25738 5.39698 2.98734 5.12372 2.81857V2.04219H10.3498V1.14768H5.12372V0.455696C5.12372 0.202532 4.91878 0 4.6626 0C4.40642 0 4.20148 0.202532 4.20148 0.455696V2.83544C3.92822 2.98734 3.74036 3.27426 3.74036 3.61181C3.74036 4.10127 4.15024 4.50633 4.6626 4.50633Z" fill="#333333"/>
</g>
<defs>
<clipPath id="clip0">
<rect width="16.2246" height="16" fill="white"/>
</clipPath>
</defs>
</svg>
