<svg width="13" height="16" viewBox="0 0 13 16" fill="none" xmlns="http://www.w3.org/2000/svg">
<g clip-path="url(#clip0)">
<path d="M6.01658 15.8989C6.08764 15.9747 6.18239 16 6.27714 16C6.37189 16 6.46664 15.9747 6.5377 15.8989L10.7304 11.4268C13.1702 8.82432 13.1702 4.57955 10.7304 1.95184C8.29057 -0.650612 4.31109 -0.650612 1.84761 1.95184C0.663245 3.21516 0 4.90801 0 6.67667C0 8.47059 0.663245 10.1382 1.84761 11.4015L6.01658 15.8989ZM2.34505 2.5077C3.43466 1.34544 4.8559 0.764311 6.27714 0.764311C7.69838 0.764311 9.11962 1.34544 10.2092 2.5077C12.3885 4.83222 12.3885 8.59692 10.2092 10.8962L6.27714 15.1157L2.34505 10.8962C1.3028 9.78445 0.71062 8.29372 0.71062 6.70193C0.71062 5.11015 1.3028 3.61942 2.34505 2.5077Z" fill="#333333"/>
<path d="M6.27726 10.0876C8.03012 10.0876 9.47504 8.54632 9.47504 6.6766C9.47504 4.80688 8.0538 3.26562 6.27726 3.26562C4.50071 3.26562 3.07947 4.80688 3.07947 6.6766C3.07947 8.54632 4.52439 10.0876 6.27726 10.0876ZM6.27726 4.02362C7.65112 4.02362 8.76442 5.21114 8.76442 6.6766C8.76442 8.14205 7.65112 9.32958 6.27726 9.32958C4.90339 9.32958 3.79009 8.14205 3.79009 6.6766C3.79009 5.21114 4.90339 4.02362 6.27726 4.02362Z" fill="#333333"/>
</g>
<defs>
<clipPath id="clip0">
<rect width="12.5602" height="16" fill="white"/>
</clipPath>
</defs>
</svg>
